2006.11.29 01:14 B C:\Documents and Settings\Rashid Bilgrami\Desktop\PeterLouis\WEB\images\leftnav_back.jpg --> www.toledowebshop.com /demos/PLS/WEB/images leftnav_back.jpg
2006.11.29 01:14 B C:\Documents and Settings\Rashid Bilgrami\Desktop\PeterLouis\WEB\images\logo.gif --> www.toledowebshop.com /demos/PLS/WEB/images logo.gif
2006.11.29 01:14 B C:\Documents and Settings\Rashid Bilgrami\Desktop\PeterLouis\WEB\images\Thumbs.db --> www.toledowebshop.com /demos/PLS/WEB/images Thumbs.db
2006.11.29 01:14 B C:\Documents and Settings\Rashid Bilgrami\Desktop\PeterLouis\WEB\images\topnav_back.jpg --> www.toledowebshop.com /demos/PLS/WEB/images topnav_back.jpg
2006.11.29 01:31 B C:\Documents and Settings\Rashid Bilgrami\Desktop\PeterLouis\WEB\images\leftnav_back.jpg --> ftps17.brinkster.com /khalydhassan/webroot/Projects/PLS/WEB/images leftnav_back.jpg
2006.11.29 01:31 B C:\Documents and Settings\Rashid Bilgrami\Desktop\PeterLouis\WEB\images\logo.gif --> ftps17.brinkster.com /khalydhassan/webroot/Projects/PLS/WEB/images logo.gif
2006.11.29 01:31 B C:\Documents and Settings\Rashid Bilgrami\Desktop\PeterLouis\WEB\images\Thumbs.db --> ftps17.brinkster.com /khalydhassan/webroot/Projects/PLS/WEB/images Thumbs.db
2006.11.29 01:31 B C:\Documents and Settings\Rashid Bilgrami\Desktop\PeterLouis\WEB\images\topnav_back.jpg --> ftps17.brinkster.com /khalydhassan/webroot/Projects/PLS/WEB/images topnav_back.jpg
2006.11.29 01:31 B C:\Documents and Settings\Rashid Bilgrami\Desktop\PeterLouis\WEB\images\WS_FTP.LOG --> ftps17.brinkster.com /khalydhassan/webroot/Projects/PLS/WEB/images WS_FTP.LOG
